…
    ## Warning: `cols` is now required when using unnest().
    ## Please use `cols = c(models)`

    ## # A tibble: 47 × 5
    ## # Groups:   city_state [47]
    ##    city_state      term              OR lower_bound upper_bound
    ##    <fct>           <chr>          <dbl>       <dbl>       <dbl>
    ##  1 Albuquerque, NM victim_sexMale 1.77        0.831       3.76 
    ##  2 Atlanta, GA     victim_sexMale 1.00        0.684       1.46 
    ##  3 Baltimore, MD   victim_sexMale 0.426       0.325       0.558
    ##  4 Baton Rouge, LA victim_sexMale 0.381       0.209       0.695
    ##  5 Birmingham, AL  victim_sexMale 0.870       0.574       1.32 
    ##  6 Boston, MA      victim_sexMale 0.674       0.356       1.28 
    ##  7 Buffalo, NY     victim_sexMale 0.521       0.290       0.935
    ##  8 Charlotte, NC   victim_sexMale 0.884       0.557       1.40 
    ##  9 Chicago, IL     victim_sexMale 0.410       0.336       0.501
    ## 10 Cincinnati, OH  victim_sexMale 0.400       0.236       0.677
    ## # … with 37 more rows
